…
Lexicons available in tidytext:
AFINN – assigns each word an integer score from –5 (very negative) to +5 (very positive).
bing – labels words simply as positive or negative.
nrc – labels words as positive or negative and in eight basic emotions (anger, anticipation, disgust, fear, joy, sadness, surprise, trust).

All three lexicons are unigram-based and cover thousands of English words, making them general-purpose tools for quick sentiment tagging within the tidy ecosystem.

Let's take a look at the "bing" lexicon.

```r
get_sentiments("bing")
```

```r
# A tibble: 6,786 × 2
   word        sentiment
   <chr>       <chr>    
 1 2-faces     negative 
 2 abnormal    negative 
 3 abolish     negative 
 4 abominable  negative 
 5 abominably  negative 
 6 abominate   negative 
 7 abomination negative 
 8 abort       negative 
 9 aborted     negative 
10 aborts      negative 
# ℹ 6,776 more rows
# ℹ Use `print(n = ...)` to see more rows
```
…
Let's take a look at the the most frequent words appeared in the novel.

```r
text_oz_filtered %>% 
  count(word) %>% 
  arrange(desc(n))
```

```r
# A tibble: 2,508 × 2
   word          n
   <chr>     <int>
 1 dorothy     343
 2 scarecrow   215
 3 woodman     172
 4 lion        171
 5 oz          161
 6 tin         139
 7 witch       123
 8 green       105
 9 girl         93
10 head         90
# ℹ 2,498 more rows
# ℹ Use `print(n = ...)` to see more rows
```

We can then merge the word-level data with our Bing lexicon to map words with sentiments.

```r
oz_sentiment = text_oz_filtered %>% 
  inner_join(bing_sent)
```

```r
oz_sentiment
```

```r
# A tibble: 1,943 × 3
   sentenceID word      sentiment
        <int> <chr>     <chr>    
 1          2 healthy   positive 
 2          2 wholesome positive 
 3          3 love      positive 
 4          3 fantastic positive 
 5          3 marvelous positive 
 6          4 unreal    positive 
 7          6 happiness positive 
 8          6 childish  negative 
 9         11 horrible  negative 
10         12 fearsome  negative 
# ℹ 1,933 more rows
# ℹ Use `print(n = ...)` to see more rows
```
…
k         <- 4
lda_model <- LDA(dtm, k = k, control = list(seed = 42))
```
```r
top_terms <- tidy(lda_model, matrix = "beta") %>%
  group_by(topic) %>%
  slice_max(beta, n = 10) %>%      # 10 “strongest” words
  ungroup() %>%
  arrange(topic, -beta)
```
```r
top_terms
```
```r
# A tibble: 66 × 3
   topic term         beta
   <int> <chr>       <dbl>
 1     1 left      0.0231 
 2     1 top       0.00990
 3     1 star      0.00990
 4     1 day       0.00990
 5     1 list      0.00990
 6     1 lewis     0.00660
 7     1 inning    0.00660
 8     1 play      0.00660
 9     1 game      0.00660
10     1 hamstring 0.00660
# ℹ 56 more rows
# ℹ Use `print(n = ...)` to see more rows
```
…
Topic 3	is very clear: Liverpool FC / Premier-League storylines, focused on Trent Alexander-Arnold and title talk.	

Topic 4	feels like rankings / power-list / draft coverage; many “Top 10 Teams” or “Live Draft” style blurbs.	Still noisy (live, york, espn’s).

Let's now turn to topic proportions per document  (γ matrix). Essentially, we measure the topic identity for each of the 100 news articles.

```r
doc_topics <- tidy(lda_model, matrix = "gamma")
```
```r
doc_topics
```
```r
 # A tibble: 400 × 3
   document topic   gamma
   <chr>    <int>   <dbl>
 1 1            1 0.993  
 2 2            1 0.997  
 3 3            1 0.996  
 4 4            1 0.996  
 5 5            1 0.00157
 6 6            1 0.00146
 7 7            1 0.00170
 8 8            1 0.00114
 9 9            1 0.00108
10 10           1 0.00128
# ℹ 390 more rows
# ℹ Use `print(n = ...)` to see more rows
```
…
